Sample data with implicit stratification — sample_implicit • tntpmetrics
…
    Details

    sample_implicit implicitly samples units by first sorting the data on the key variables
  indicated. It uses a serpentine sort, which alternates between ascending and descending orders
  so that any two adjacent rows in the sorted data are as similar as possible. See
  serpentine for more details about serpentine sorting and
  vignette("sample_implicit") for a longer discussion of why it's useful. Serpentine
  sorting is commonly used by NCES to achieve implicit stratification.

    Examples

# Sample 7 cars after implicitly stratifying on gear and mpg.
sampled_cars <- sample_implicit(data = mtcars, n = 7, am, mpg)
sampled_cars
#> # A tibble: 32 x 12
#>      mpg   cyl  disp    hp  drat    wt  qsec    vs    am  gear  carb in_sample
#>    <dbl> <dbl> <dbl> <dbl> <dbl> <dbl> <dbl> <dbl> <dbl> <dbl> <dbl> <lgl>    
#>  1  10.4     8  460    215  3     5.42  17.8     0     0     3     4 FALSE    
#>  2  10.4     8  472    205  2.93  5.25  18.0     0     0     3     4 TRUE     
#>  3  13.3     8  350    245  3.73  3.84  15.4     0     0     3     4 FALSE    
#>  4  14.3     8  360    245  3.21  3.57  15.8     0     0     3     4 FALSE    
#>  5  14.7     8  440    230  3.23  5.34  17.4     0     0     3     4 FALSE    
#>  6  15.2     8  276.   180  3.07  3.78  18       0     0     3     3 TRUE     
#>  7  15.2     8  304    150  3.15  3.44  17.3     0     0     3     2 FALSE    
#>  8  15.5     8  318    150  2.76  3.52  16.9     0     0     3     2 FALSE    
#>  9  16.4     8  276.   180  3.07  4.07  17.4     0     0     3     3 FALSE    
#> 10  17.3     8  276.   180  3.07  3.73  17.6     0     0     3     3 FALSE    
#> # ... with 22 more rows
…
# You'll get different, but reproducible results if you change the random number
sampled_cars1 <- sample_implicit(data = mtcars, n = 5, am, mpg)
sampled_cars2 <- sample_implicit(data = mtcars, n = 5, am, mpg, random_num = 2)
sampled_cars1
#> # A tibble: 32 x 12
#>      mpg   cyl  disp    hp  drat    wt  qsec    vs    am  gear  carb in_sample
#>    <dbl> <dbl> <dbl> <dbl> <dbl> <dbl> <dbl> <dbl> <dbl> <dbl> <dbl> <lgl>    
#>  1  10.4     8  460    215  3     5.42  17.8     0     0     3     4 FALSE    
#>  2  10.4     8  472    205  2.93  5.25  18.0     0     0     3     4 TRUE     
#>  3  13.3     8  350    245  3.73  3.84  15.4     0     0     3     4 FALSE    
#>  4  14.3     8  360    245  3.21  3.57  15.8     0     0     3     4 FALSE    
#>  5  14.7     8  440    230  3.23  5.34  17.4     0     0     3     4 FALSE    
#>  6  15.2     8  276.   180  3.07  3.78  18       0     0     3     3 FALSE    
#>  7  15.2     8  304    150  3.15  3.44  17.3     0     0     3     2 FALSE    
#>  8  15.5     8  318    150  2.76  3.52  16.9     0     0     3     2 FALSE    
#>  9  16.4     8  276.   180  3.07  4.07  17.4     0     0     3     3 TRUE     
#> 10  17.3     8  276.   180  3.07  3.73  17.6     0     0     3     3 FALSE    
#> # ... with 22 more rows
sampled_cars2
#> # A tibble: 32 x 12
#>      mpg   cyl  disp    hp  drat    wt  qsec    vs    am  gear  carb in_sample
#>    <dbl> <dbl> <dbl> <dbl> <dbl> <dbl> <dbl> <dbl> <dbl> <dbl> <dbl> <lgl>    
#>  1  10.4     8  472    205  2.93  5.25  18.0     0     0     3     4 FALSE    
#>  2  10.4     8  460    215  3     5.42  17.8     0     0     3     4 TRUE     
#>  3  13.3     8  350    245  3.73  3.84  15.4     0     0     3     4 FALSE    
#>  4  14.3     8  360    245  3.21  3.57  15.8     0     0     3     4 FALSE    
#>  5  14.7     8  440    230  3.23  5.34  17.4     0     0     3     4 FALSE    
#>  6  15.2     8  276.   180  3.07  3.78  18       0     0     3     3 FALSE    
#>  7  15.2     8  304    150  3.15  3.44  17.3     0     0     3     2 FALSE    
#>  8  15.5     8  318    150  2.76  3.52  16.9     0     0     3     2 TRUE     
#>  9  16.4     8  276.   180  3.07  4.07  17.4     0     0     3     3 FALSE    
#> 10  17.3     8  276.   180  3.07  3.73  17.6     0     0     3     3 FALSE    
#> # ... with 22 more rows

# If you have a variable that represents size, it's easy to account for that when selecting
# the sample
sample_implicit(data = mtcars, n = 5, am, mpg, size_var = hp)
#> # A tibble: 32 x 12
#>      mpg   cyl  disp    hp  drat    wt  qsec    vs    am  gear  carb in_sample
#>    <dbl> <dbl> <dbl> <dbl> <dbl> <dbl> <dbl> <dbl> <dbl> <dbl> <dbl> <lgl>    
#>  1  10.4     8  460    215  3     5.42  17.8     0     0     3     4 FALSE    
#>  2  10.4     8  472    205  2.93  5.25  18.0     0     0     3     4 TRUE     
#>  3  13.3     8  350    245  3.73  3.84  15.4     0     0     3     4 FALSE    
#>  4  14.3     8  360    245  3.21  3.57  15.8     0     0     3     4 FALSE    
#>  5  14.7     8  440    230  3.23  5.34  17.4     0     0     3     4 FALSE    
#>  6  15.2     8  276.   180  3.07  3.78  18       0     0     3     3 FALSE    
#>  7  15.2     8  304    150  3.15  3.44  17.3     0     0     3     2 TRUE     
#>  8  15.5     8  318    150  2.76  3.52  16.9     0     0     3     2 FALSE    
#>  9  16.4     8  276.   180  3.07  4.07  17.4     0     0     3     3 FALSE    
#> 10  17.3     8  276.   180  3.07  3.73  17.6     0     0     3     3 FALSE    
#> # ... with 22 more rows
…
